<svg version="1.1" id="Layer_1" xmlns="http://www.w3.org/2000/svg" xmlns:xlink="http://www.w3.org/1999/xlink" x="0px" y="0px"
     viewBox="0 0 2000 2000" enable-background="new 0 0 2000 2000" xml:space="preserve">
<g>
    <path fill="#66C4E9" d="M676.9,1179.7c39-131.5-26.5-273.9-155.9-328c-138.6-57.9-297.9,7.5-355.8,146
        c-57.9,138.6,7.5,297.9,146,355.8c68.6,28.7,142.3,27.1,206.3,1.3c62,1.8,150.3-6.8,264.3-44.4c1.7-14.5,3.9-29.3,6.9-44.6
        C755.6,1247.9,712,1219.4,676.9,1179.7z"/>
    <path fill="#A9B64C" d="M1119.7,1011.1c0,0,68.9-44.7,148.7-51c65.3,88.1,187.7,114.7,284.5,58.1
        c103.7-60.7,138.5-193.9,77.8-297.6c-60.7-103.7-193.9-138.5-297.6-77.8c-51.3,30-85.7,77.9-100.1,131.1
        C1197.1,818.9,1152.8,893.4,1119.7,1011.1z"/>
    <path fill="#5C5D60" d="M1767.6,1365.5c-6.8-4.2-28.8-4.6-28.8-4.6l-16.2-19.2c0,0-222.7-104.9-233.6-111.5
        c-10.8-6.6-34.6,4.9-34.6,4.9c-1.9-0.8-3.9-1.6-5.8-2.4c-250.8-105.8-411.4-286.9-411.4-286.9l-1.1,3.1c-4.8-3.5-9.9-6.5-15.5-8.3
        c-26.2-8.4-56.8,4-87.4,31.4c-1.2,19-1.4,37.1-0.9,54c31.2-38.5,63.3-58.2,89-49.9c43.3,13.9,55.2,102.4,32.9,211l-49.5-16.1
        c-36.3-11.8-75.3,8.1-87.1,44.4c-11.8,36.3,8.1,75.3,44.4,87.1l50.7,16.5c-45.3,105-108.1,173.4-152.4,159.2
        c-52.5-16.8-58.9-142.8-14.4-281.4c12.6-39.2,27.9-75.1,44.6-106.2c-10.1-8-19.9-16-29.3-23.8c-19.7,35-37.6,75.6-51.9,120.1
        c-8.7,27.1-15.4,53.7-20.3,79.4c-2.9,15.2-5.2,30.1-6.9,44.6c-11.9,103,7.9,183.6,56,199c13.7,4.4,28.6,2.9,44-3.1
        c43.3-4.3,108.3-25.3,156.5-39.9c73.3-22.2,368.3-10.9,376.2-11.7c7.9-0.7,24.9,17.1,24.9,17.1c7.7,1.9,15.1,3.8,22.3,5.5
        c-5,15.9-22.5,74.3-14.8,82.2c2.6,2.7,8.6,7.2,16.4,12l-53.2,189c0,0,29.2,54.5,95.2,13.6l53.3-189.2c19-8.3,26.9-19.3,26.9-19.3
        l18.1-64.2c82.6,7,114-6.2,114-6.2c35.6,8.8,71.1-30.9,78.8-61.7C1804.3,1402.9,1774.4,1369.6,1767.6,1365.5z M1420.9,1249.9
        c-49.7-3.1-307.4-161.4-316.7-164.6c-9.3-3.1,3.1-31.1,3.1-31.1C1203.5,1141.3,1432,1250.6,1420.9,1249.9z M1442.6,1777.8
        l-12.4-9.3l52-180.8l-11.7,0.3h12.4l-0.7-0.3l16.3,2.2L1442.6,1777.8z M1504.7,1489c0,0-15.5,59-18.6,68.3
        c-3.1,9.3-27.9-3.1-27.9-3.1l27.9-71.4C1498.5,1479.7,1504.7,1489,1504.7,1489z M1458.1,1423.8l239.1,27.9
        C1697.2,1451.7,1470.6,1439.3,1458.1,1423.8z M1714,1386.5c0,0-239.7-77.6-236.6-86.9c3.1-9.3-2.8-49.7-2.8-49.7l239.4,114.9
        V1386.5z M1765.5,1408.3l-6.2-34.2c9.3,0,24.8,31.1,24.8,31.1L1765.5,1408.3z"/>
    <path fill="#FFFFFE" d="M890.3,1090.2c-16.7,31.1-32,67-44.6,106.2c-44.5,138.6-38,264.6,14.4,281.4
        c44.3,14.2,107.1-54.1,152.4-159.2l-50.7-16.5c-36.3-11.8-56.2-50.8-44.4-87.1c11.8-36.3,50.8-56.2,87.1-44.4l49.5,16.1
        c22.3-108.5,10.4-197.1-32.9-211c-25.8-8.3-57.8,11.4-89,49.9c1.7,61.3,11.6,105.1,11.6,105.1
        C925,1117.2,907.3,1103.7,890.3,1090.2z"/>
    <path fill="#FFAD26" d="M943.8,1130.9c0,0-9.9-43.7-11.6-105.1c-0.5-16.9-0.3-35,0.9-54c2-32.3,6.9-66.8,16.5-101
        c174.4-50.7,286.1-225.7,253.7-408.5c-34.7-195.8-221.7-326.3-417.4-291.6c-195.8,34.7-326.3,221.6-291.6,417.4
        c17.2,97,71.8,178,146.3,230.8c40.3,66.8,107.9,153.3,220.4,247.5c9.4,7.9,19.2,15.9,29.3,23.8
        C907.3,1103.7,925,1117.2,943.8,1130.9z"/>
    <path fill="#FFFFFE" d="M1104.2,1085.4c9.3,3.1,267,161.5,316.7,164.6c11.2,0.7-217.3-108.7-313.6-195.6
        C1107.3,1054.3,1094.9,1082.3,1104.2,1085.4z"/>
    <path fill="#FFFFFE" d="M1477.4,1299.6c-3.1,9.3,236.6,86.9,236.6,86.9v-21.7l-239.4-114.9
        C1474.6,1249.9,1480.5,1290.3,1477.4,1299.6z"/>
    <path fill="#FFFFFE" d="M1486.1,1482.8l-27.9,71.4c0,0,24.8,12.4,27.9,3.1c3.1-9.3,18.6-68.3,18.6-68.3
        S1498.5,1479.7,1486.1,1482.8z"/>
    <polygon fill="#FFFFFE" points="1470.6,1582 1482.2,1584.6 1483,1582     "/>
    <polygon fill="#FFFFFE" points="1430.2,1768.5 1442.6,1777.8 1498.5,1588.4 1482.2,1584.8     "/>
    <path fill="#FFFFFE" d="M1697.2,1451.7l-239.1-27.9C1470.6,1439.3,1697.2,1451.7,1697.2,1451.7z"/>
</g>
</svg>